…
read_csv("data/中央区.pdf_0.csv")
```

    New names:
    Rows: 24 Columns: 7
    ── Column specification
    ────────────────────────────────────────────────────────
    Delimiter: "," chr (7): ...1, 事業所（店舗等）名, 事業種別, 事業内容,
    事業所所在地, 電話番号, PR・オトク情報...
    ℹ Use `spec()` to retrieve the full column specification for this data. ℹ
    Specify the column types or set `show_col_types = FALSE` to quiet this message.
    • `` -> `...1`

    # A tibble: 24 × 7
       ...1  `事業所（店舗等）名` 事業種別   事業内容        事業…¹  電話…²  PR・…³
       <chr> <chr>                <chr>      <chr>           <chr>   <chr>   <chr>
     1 相生  GOGO                 飲食業     "お酒飲みなが…  相生3-… 080-47…  <NA>
     2 <NA>  U-Select相模原中央   小売業     "自動車(中古車… 相生2-… 042-75…  <NA>
     3 <NA>  うなぎ処いわき       飲食業     "飲食業"        相生2-… 042-75…  <NA>
     4 <NA>  （有）菅原塗装工房   その他     "住宅塗装"      相生3-… 042-70…  <NA>
     5 <NA>  セブンイレブン相生店 小売業     "コンビニエン…  相生4-… 042-75…  <NA>
     6 <NA>  せんざん相模原店     飲食業     "和食、海鮮料…  相生1-1 042-77…  <NA>
     7 <NA>  ソニック相模原       小売業     "家電販売、電…  相生4-… 042-75… "お見…
     8 <NA>  蕎麦とそばまえgenten 飲食業     "手打ち蕎麦屋…  相生1-… 042-76…  <NA>
     9 <NA>  パティスリーフレジェ 小売業     "手作りケーキ…  相生3-… 042-75… "手作…
    10 <NA>  ヘアーサロン セオ    サービス業 "理容業 カット… 相生4-… 042-75…  <NA>
    # … with 14 more rows, and abbreviated variable names ¹​事業所所在地, ²​電話番号,
    #   ³​`PR・オトク情報`
    # ℹ Use `print(n = ...)` to see more rows
…
途切れているので住所だけを抽出。

``` r
df_joined |> select(adress)
```

    # A tibble: 2,021 × 1
       adress
       <glue>
     1 神奈川県相模原市中央区事業所所在地
     2 神奈川県相模原市中央区相生3-4-20
     3 神奈川県相模原市中央区相生2-1-1
     4 神奈川県相模原市中央区相生2-16-6
     5 神奈川県相模原市中央区相生3-13-10-1F-1
     6 神奈川県相模原市中央区相生4-1-15
     7 神奈川県相模原市中央区相生1-1
     8 神奈川県相模原市中央区相生4-11-15
     9 神奈川県相模原市中央区相生1-1-18　1F
    10 神奈川県相模原市中央区相生3-14-14
    # … with 2,011 more rows
    # ℹ Use `print(n = ...)` to see more rows
…
